0,icmp,other,SF,0,65000,0,0,0,0,0,0,0,0,0,0,0,0,0,0,0,0,0,0,0.00,0.00,0.00,0.00,0.00,0.00,0.00,0,0,0.00,0.00,0.00,0.00,0.00,0.00,0.00,0.00
0,icmp,other,SH,0,0,0,0,0,0,0,0,0,0,0,0,0,0,0,0,0,0,0,1,0.00,0.00,0.00,0.00,0.00,0.00,1.00,0,1,0.00,0.00,1.00,1.00,0.00,0.00,0.00,0.00
0,tcp,daytime,REJ,0,0,0,0,0,0,0,0,0,0,0,0,0,0,0,0,0,0,0,2,0.00,0.00,0.00,0.00,0.00,0.00,1.00,0,2,0.00,0.00,1.00,1.00,0.00,0.00,0.00,0.00
0,tcp,domain,REJ,0,0,0,0,0,0,0,0,0,0,0,0,0,0,0,0,0,0,0,3,0.00,0.00,0.00,0.00,0.00,0.00,1.00,0,3,0.00,0.00,1.00,1.00,0.00,0.00,0.00,0.00
0,tcp,echo,REJ,0,0,0,0,0,0,0,0,0,0,0,0,0,0,0,0,0,0,0,4,0.00,0.00,0.00,0.00,0.00,0.00,1.00,0,4,0.00,0.00,1.00,1.00,0.00,0.00,0.00,0.00
0,tcp,echo,REJ,0,0,0,0,0,0,0,0,0,0,0,0,0,0,0,0,0,0,0,5,0.00,0.00,0.00,0.00,0.00,0.00,1.00,0,5,0.00,0.00,1.00,1.00,0.00,0.00,0.00,0.00
0,tcp,echo,REJ,0,0,0,0,0,0,0,0,0,0,0,0,0,0,0,0,0,0,0,6,0.00,0.00,0.00,0.00,0.00,0.00,1.00,0,6,0.00,0.00,1.00,1.00,0.00,0.00,0.00,0.00
0,tcp,echo,REJ,0,0,0,0,0,0,0,0,0,0,0,0,0,0,0,0,0,0,0,7,0.00,0.00,0.00,0.00,0.00,0.00,1.00,0,7,0.00,0.00,1.00,1.00,0.00,0.00,0.00,0.00
0,tcp,echo,REJ,0,0,0,0,0,0,0,0,0,0,0,0,0,0,0,0,0,0,0,8,0.00,0.00,0.00,0.00,0.00,0.00,1.00,0,8,0.00,0.00,1.00,1.00,0.00,0.00,0.00,0.00
0,tcp,echo,RSTR,0,0,0,0,4,0,0,0,0,0,0,0,0,0,0,0,0,0,0,9,0.00,0.00,0.00,0.00,0.00,0.00,1.00,0,9,0.00,0.00,1.00,1.00,0.00,0.00,0.00,0.00
0,tcp,ftp,REJ,0,0,0,0,0,0,0,0,0,0,0,0,0,0,0,0,0,0,0,10,0.00,0.00,0.00,0.00,0.00,0.00,1.00,0,10,0.00,0.00,1.00,1.00,0.00,0.00,0.00,0.00
0,tcp,http,OTH,0,31,0,1,0,0,0,0,0,0,0,0,0,0,0,0,0,0,0,11,0.00,0.00,0.00,0.00,0.00,0.00,1.00,0,11,0.00,0.00,1.00,1.00,0.00,0.00,0.00,0.00
0,tcp,http,REJ,0,0,0,0,0,0,0,0,0,0,0,0,0,0,0,0,0,0,0,12,0.00,0.00,0.00,0.00,0.00,0.00,1.00,0,12,0.00,0.00,1.00,1.00,0.00,0.00,0.00,0.00
0,tcp,http,RSTOS0,0,0,0,1,0,0,0,0,0,0,0,0,0,0,0,0,0,0,0,13,0.00,0.00,0.00,0.00,0.00,0.00,1.00,0,13,0.00,0.00,1.00,1.00,0.00,0.00,0.00,0.00
0,tcp,http,S0,0,0,0,1,0,0,0,0,0,0,0,0,0,0,0,0,0,0,0,14,0.00,0.00,0.00,0.00,0.00,0.00,1.00,0,14,0.00,0.00,1.00,1.00,0.00,0.00,0.00,0.00
0,tcp,http,SH,18,0,0,3,0,0,0,0,0,0,0,0,0,0,0,0,0,0,0,15,0.00,0.00,0.00,0.00,0.00,0.00,1.00,0,15,0.00,0.00,1.00,1.00,0.00,0.00,0.00,0.00
0,tcp,other,REJ,0,0,0,0,0,0,0,0,0,0,0,0,0,0,0,0,0,0,0,16,0.00,0.00,0.00,0.00,0.00,0.00,1.00,0,16,0.00,0.00,1.00,1.00,0.00,0.00,0.00,0.00
0,tcp,other,REJ,0,0,0,0,0,0,0,0,0,0,0,0,0,0,0,0,0,0,0,17,0.00,0.00,0.00,0.00,0.00,0.00,1.00,0,17,0.00,0.00,1.00,1.00,0.00,0.00,0.00,0.00
0,tcp,other,REJ,0,0,0,0,0,0,0,0,0,0,0,0,0,0,0,0,0,0,0,18,0.00,0.00,0.00,0.00,0.00,0.00,1.00,0,18,0.00,0.00,1.00,1.00,0.00,0.00,0.00,0.00
0,tcp,other,REJ,0,0,0,0,0,0,0,0,0,0,0,0,0,0,0,0,0,0,0,19,0.00,0.00,0.00,0.00,0.00,0.00,1.00,0,19,0.00,0.00,1.00,1.00,0.00,0.00,0.00,0.00
0,tcp,other,REJ,0,0,0,0,0,0,0,0,0,0,0,0,0,0,0,0,0,0,0,20,0.00,0.00,0.00,0.00,0.00,0.00,1.00,0,20,0.00,0.00,1.00,1.00,0.00,0.00,0.00,0.00
0,tcp,other,REJ,0,0,0,0,0,0,0,0,0,0,0,0,0,0,0,0,0,0,0,21,0.00,0.00,0.00,0.00,0.00,0.00,1.00,0,21,0.00,0.00,1.00,1.00,0.00,0.00,0.00,0.00
0,tcp,other,REJ,0,0,0,0,0,0,0,0,0,0,0,0,0,0,0,0,0,0,0,22,0.00,0.00,0.00,0.00,0.00,0.00,1.00,0,22,0.00,0.00,1.00,1.00,0.00,0.00,0.00,0.00
0,tcp,other,REJ,0,0,0,0,0,0,0,0,0,0,0,0,0,0,0,0,0,0,0,23,0.00,0.00,0.00,0.00,0.00,0.00,1.00,0,23,0.00,0.00,1.00,1.00,0.00,0.00,0.00,0.00
0,tcp,other,REJ,0,0,0,0,0,0,0,0,0,0,0,0,0,0,0,0,0,0,0,24,0.00,0.00,0.00,0.00,0.00,0.00,1.00,0,24,0.00,0.00,1.00,1.00,0.00,0.00,0.00,0.00
0,tcp,other,REJ,0,0,0,0,0,0,0,0,0,0,0,0,0,0,0,0,0,0,0,25,0.00,0.00,0.00,0.00,0.00,0.00,1.00,0,25,0.00,0.00,1.00,1.00,0.00,0.00,0.00,0.00
0,tcp,other,REJ,0,0,0,0,0,0,0,0,0,0,0,0,0,0,0,0,0,0,0,26,0.00,0.00,0.00,0.00,0.00,0.00,1.00,0,26,0.00,0.00,1.00,1.00,0.00,0.00,0.00,0.00
0,tcp,other,REJ,0,0,0,0,0,0,0,0,0,0,0,0,0,0,0,0,0,0,0,27,0.00,0.00,0.00,0.00,0.00,0.00,1.00,0,27,0.00,0.00,1.00,1.00,0.00,0.00,0.00,0.00
0,tcp,other,REJ,0,0,0,0,0,0,0,0,0,0,0,0,0,0,0,0,0,0,0,28,0.00,0.00,0.00,0.00,0.00,0.00,1.00,0,28,0.00,0.00,1.00,1.00,0.00,0.00,0.00,0.00
0,tcp,other,REJ,0,0,0,0,0,0,0,0,0,0,0,0,0,0,0,0,0,0,0,29,0.00,0.00,0.00,0.00,0.00,0.00,1.00,0,29,0.00,0.00,1.00,1.00,0.00,0.00,0.00,0.00
0,tcp,other,REJ,0,0,0,0,0,0,0,0,0,0,0,0,0,0,0,0,0,0,0,30,0.00,0.00,0.00,0.00,0.00,0.00,1.00,0,30,0.00,0.00,1.00,1.00,0.00,0.00,0.00,0.00
0,tcp,other,REJ,0,0,0,0,0,0,0,0,0,0,0,0,0,0,0,0,0,0,0,31,0.00,0.00,0.00,0.00,0.00,0.00,1.00,0,31,0.00,0.00,1.00,1.00,0.00,0.00,0.00,0.00
0,tcp,other,REJ,0,0,0,0,0,0,0,0,0,0,0,0,0,0,0,0,0,0,0,32,0.00,0.00,0.00,0.00,0.00,0.00,1.00,0,32,0.00,0.00,1.00,1.00,0.00,0.00,0.00,0.00
0,tcp,other,REJ,0,0,0,0,0,0,0,0,0,0,0,0,0,0,0,0,0,0,0,33,0.00,0.00,0.00,0.00,0.00,0.00,1.00,0,33,0.00,0.00,1.00,1.00,0.00,0.00,0.00,0.00
0,tcp,other,REJ,0,0,0,0,0,0,0,0,0,0,0,0,0,0,0,0,0,0,0,34,0.00,0.00,0.00,0.00,0.00,0.00,1.00,0,34,0.00,0.00,1.00,1.00,0.00,0.00,0.00,0.00
0,tcp,other,REJ,0,0,0,0,0,0,0,0,0,0,0,0,0,0,0,0,0,0,0,35,0.00,0.00,0.00,0.00,0.00,0.00,1.00,0,35,0.00,0.00,1.00,1.00,0.00,0.00,0.00,0.00
0,tcp,other,REJ,0,0,0,0,0,0,0,0,0,0,0,0,0,0,0,0,0,0,0,36,0.00,0.00,0.00,0.00,0.00,0.00,1.00,0,36,0.00,0.00,1.00,1.00,0.00,0.00,0.00,0.00
0,tcp,other,REJ,0,0,0,0,0,0,0,0,0,0,0,0,0,0,0,0,0,0,0,37,0.00,0.00,0.00,0.00,0.00,0.00,1.00,0,37,0.00,0.00,1.00,1.00,0.00,0.00,0.00,0.00
0,tcp,other,REJ,0,0,0,0,0,0,0,0,0,0,0,0,0,0,0,0,0,0,0,38,0.00,0.00,0.00,0.00,0.00,0.00,1.00,0,38,0.00,0.00,1.00,1.00,0.00,0.00,0.00,0.00
0,tcp,other,REJ,0,0,0,0,0,0,0,0,0,0,0,0,0,0,0,0,0,0,0,39,0.00,0.00,0.00,0.00,0.00,0.00,1.00,0,39,0.00,0.00,1.00,1.00,0.00,0.00,0.00,0.00
0,tcp,other,REJ,0,0,0,0,0,0,0,0,0,0,0,0,0,0,0,0,0,0,0,40,0.00,0.00,0.00,0.00,0.00,0.00,1.00,0,40,0.00,0.00,1.00,1.00,0.00,0.00,0.00,0.00
0,tcp,other,REJ,0,0,0,0,0,0,0,0,0,0,0,0,0,0,0,0,0,0,0,41,0.00,0.00,0.00,0.00,0.00,0.00,1.00,0,41,0.00,0.00,1.00,1.00,0.00,0.00,0.00,0.00
0,tcp,other,REJ,0,0,0,0,0,0,0,0,0,0,0,0,0,0,0,0,0,0,0,42,0.00,0.00,0.00,0.00,0.00,0.00,1.00,0,42,0.00,0.00,1.00,1.00,0.00,0.00,0.00,0.00
0,tcp,other,REJ,0,0,0,0,0,0,0,0,0,0,0,0,0,0,0,0,0,0,0,43,0.00,0.00,0.00,0.00,0.00,0.00,1.00,0,43,0.00,0.00,1.00,1.00,0.00,0.00,0.00,0.00
0,tcp,other,REJ,0,0,0,0,0,0,0,0,0,0,0,0,0,0,0,0,0,0,0,44,0.00,0.00,0.00,0.00,0.00,0.00,1.00,0,44,0.00,0.00,1.00,1.00,0.00,0.00,0.00,0.00
0,tcp,other,REJ,0,0,0,0,0,0,0,0,0,0,0,0,0,0,0,0,0,0,0,45,0.00,0.00,0.00,0.00,0.00,0.00,1.00,0,45,0.00,0.00,1.00,1.00,0.00,0.00,0.00,0.00
0,tcp,other,REJ,0,0,0,0,0,0,0,0,0,0,0,0,0,0,0,0,0,0,0,46,0.00,0.00,0.00,0.00,0.00,0.00,1.00,0,46,0.00,0.00,1.00,1.00,0.00,0.00,0.00,0.00
0,tcp,other,REJ,0,0,0,0,0,0,0,0,0,0,0,0,0,0,0,0,0,0,0,47,0.00,0.00,0.00,0.00,0.00,0.00,1.00,0,47,0.00,0.00,1.00,1.00,0.00,0.00,0.00,0.00
0,tcp,other,REJ,0,0,0,0,0,0,0,0,0,0,0,0,0,0,0,0,0,0,0,48,0.00,0.00,0.00,0.00,0.00,0.00,1.00,0,48,0.00,0.00,1.00,1.00,0.00,0.00,0.00,0.00
0,tcp,other,REJ,0,0,0,0,0,0,0,0,0,0,0,0,0,0,0,0,0,0,0,49,0.00,0.00,0.00,0.00,0.00,0.00,1.00,0,49,0.00,0.00,1.00,1.00,0.00,0.00,0.00,0.00
0,tcp,other,REJ,0,0,0,0,0,0,0,0,0,0,0,0,0,0,0,0,0,0,0,50,0.00,0.00,0.00,0.00,0.00,0.00,1.00,0,50,0.00,0.00,1.00,1.00,0.00,0.00,0.00,0.00
0,tcp,other,REJ,0,0,0,0,0,0,0,0,0,0,0,0,0,0,0,0,0,0,0,51,0.00,0.00,0.00,0.00,0.00,0.00,1.00,0,51,0.00,0.00,1.00,1.00,0.00,0.00,0.00,0.00
0,tcp,other,REJ,0,0,0,0,0,0,0,0,0,0,0,0,0,0,0,0,0,0,0,52,0.00,0.00,0.00,0.00,0.00,0.00,1.00,0,52,0.00,0.00,1.00,1.00,0.00,0.00,0.00,0.00
0,tcp,other,REJ,0,0,0,0,0,0,0,0,0,0,0,0,0,0,0,0,0,0,0,53,0.00,0.00,0.00,0.00,0.00,0.00,1.00,0,53,0.00,0.00,1.00,1.00,0.00,0.00,0.00,0.00
0,tcp,other,REJ,0,0,0,0,0,0,0,0,0,0,0,0,0,0,0,0,0,0,0,54,0.00,0.00,0.00,0.00,0.00,0.00,1.00,0,54,0.00,0.00,1.00,1.00,0.00,0.00,0.00,0.00
0,tcp,other,REJ,0,0,0,0,0,0,0,0,0,0,0,0,0,0,0,0,0,0,0,55,0.00,0.00,0.00,0.00,0.00,0.00,1.00,0,55,0.00,0.00,1.00,1.00,0.00,0.00,0.00,0.00
0,tcp,other,REJ,0,0,0,0,0,0,0,0,0,0,0,0,0,0,0,0,0,0,0,56,0.00,0.00,0.00,0.00,0.00,0.00,1.00,0,56,0.00,0.00,1.00,1.00,0.00,0.00,0.00,0.00
0,tcp,other,REJ,0,0,0,0,0,0,0,0,0,0,0,0,0,0,0,0,0,0,0,57,0.00,0.00,0.00,0.00,0.00,0.00,1.00,0,57,0.00,0.00,1.00,1.00,0.00,0.00,0.00,0.00
0,tcp,other,REJ,0,0,0,0,0,0,0,0,0,0,0,0,0,0,0,0,0,0,0,58,0.00,0.00,0.00,0.00,0.00,0.00,1.00,0,58,0.00,0.00,1.00,1.00,0.00,0.00,0.00,0.00
0,tcp,other,REJ,0,0,0,0,0,0,0,0,0,0,0,0,0,0,0,0,0,0,0,59,0.00,0.00,0.00,0.00,0.00,0.00,1.00,0,59,0.00,0.00,1.00,1.00,0.00,0.00,0.00,0.00
0,tcp,other,REJ,0,0,0,0,0,0,0,0,0,0,0,0,0,0,0,0,0,0,0,60,0.00,0.00,0.00,0.00,0.00,0.00,1.00,0,60,0.00,0.00,1.00,1.00,0.00,0.00,0.00,0.00
0,tcp,other,REJ,0,0,0,0,0,0,0,0,0,0,0,0,0,0,0,0,0,0,0,61,0.00,0.00,0.00,0.00,0.00,0.00,1.00,0,61,0.00,0.00,1.00,1.00,0.00,0.00,0.00,0.00
0,tcp,other,REJ,0,0,0,0,0,0,0,0,0,0,0,0,0,0,0,0,0,0,0,62,0.00,0.00,0.00,0.00,0.00,0.00,1.00,0,62,0.00,0.00,1.00,1.00,0.00,0.00,0.00,0.00
0,tcp,other,REJ,0,0,0,0,0,0,0,0,0,0,0,0,0,0,0,0,0,0,0,63,0.00,0.00,0.00,0.00,0.00,0.00,1.00,0,63,0.00,0.00,1.00,1.00,0.00,0.00,0.00,0.00
0,tcp,other,REJ,0,0,0,0,0,0,0,0,0,0,0,0,0,0,0,0,0,0,0,64,0.00,0.00,0.00,0.00,0.00,0.00,1.00,0,64,0.00,0.00,1.00,1.00,0.00,0.00,0.00,0.00
0,tcp,other,REJ,0,0,0,0,0,0,0,0,0,0,0,0,0,0,0,0,0,0,0,65,0.00,0.00,0.00,0.00,0.00,0.00,1.00,0,65,0.00,0.00,1.00,1.00,0.00,0.00,0.00,0.00
0,tcp,other,REJ,0,0,0,0,0,0,0,0,0,0,0,0,0,0,0,0,0,0,0,66,0.00,0.00,0.00,0.00,0.00,0.00,1.00,0,66,0.00,0.00,1.00,1.00,0.00,0.00,0.00,0.00
0,tcp,other,REJ,0,0,0,0,0,0,0,0,0,0,0,0,0,0,0,0,0,0,0,67,0.00,0.00,0.00,0.00,0.00,0.00,1.00,0,67,0.00,0.00,1.00,1.00,0.00,0.00,0.00,0.00
0,tcp,other,REJ,0,0,0,0,0,0,0,0,0,0,0,0,0,0,0,0,0,0,0,68,0.00,0.00,0.00,0.00,0.00,0.00,1.00,0,68,0.00,0.00,1.00,1.00,0.00,0.00,0.00,0.00
0,tcp,other,REJ,0,0,0,0,0,0,0,0,0,0,0,0,0,0,0,0,0,0,0,69,0.00,0.00,0.00,0.00,0.00,0.00,1.00,0,69,0.00,0.00,1.00,1.00,0.00,0.00,0.00,0.00
0,tcp,other,REJ,0,0,0,0,0,0,0,0,0,0,0,0,0,0,0,0,0,0,0,70,0.00,0.00,0.00,0.00,0.00,0.00,1.00,0,70,0.00,0.00,1.00,1.00,0.00,0.00,0.00,0.00
0,tcp,other,REJ,0,0,0,0,0,0,0,0,0,0,0,0,0,0,0,0,0,0,0,71,0.00,0.00,0.00,0.00,0.00,0.00,1.00,0,71,0.00,0.00,1.00,1.00,0.00,0.00,0.00,0.00
0,tcp,other,REJ,0,0,0,0,0,0,0,0,0,0,0,0,0,0,0,0,0,0,0,72,0.00,0.00,0.00,0.00,0.00,0.00,1.00,0,72,0.00,0.00,1.00,1.00,0.00,0.00,0.00,0.00
0,tcp,other,REJ,0,0,0,0,0,0,0,0,0,0,0,0,0,0,0,0,0,0,0,73,0.00,0.00,0.00,0.00,0.00,0.00,1.00,0,73,0.00,0.00,1.00,1.00,0.00,0.00,0.00,0.00
0,tcp,other,REJ,0,0,0,0,0,0,0,0,0,0,0,0,0,0,0,0,0,0,0,74,0.00,0.00,0.00,0.00,0.00,0.00,1.00,0,74,0.00,0.00,1.00,1.00,0.00,0.00,0.00,0.00
0,tcp,other,REJ,0,0,0,0,0,0,0,0,0,0,0,0,0,0,0,0,0,0,0,75,0.00,0.00,0.00,0.00,0.00,0.00,1.00,0,75,0.00,0.00,1.00,1.00,0.00,0.00,0.00,0.00
0,tcp,other,REJ,0,0,0,0,0,0,0,0,0,0,0,0,0,0,0,0,0,0,0,76,0.00,0.00,0.00,0.00,0.00,0.00,1.00,0,76,0.00,0.00,1.00,1.00,0.00,0.00,0.00,0.00
0,tcp,other,REJ,0,0,0,0,0,0,0,0,0,0,0,0,0,0,0,0,0,0,0,77,0.00,0.00,0.00,0.00,0.00,0.00,1.00,0,77,0.00,0.00,1.00,1.00,0.00,0.00,0.00,0.00
0,tcp,other,REJ,0,0,0,0,0,0,0,0,0,0,0,0,0,0,0,0,0,0,0,78,0.00,0.00,0.00,0.00,0.00,0.00,1.00,0,78,0.00,0.00,1.00,1.00,0.00,0.00,0.00,0.00
0,tcp,other,REJ,0,0,0,0,0,0,0,0,0,0,0,0,0,0,0,0,0,0,0,79,0.00,0.00,0.00,0.00,0.00,0.00,1.00,0,79,0.00,0.00,1.00,1.00,0.00,0.00,0.00,0.00
0,tcp,other,REJ,0,0,0,0,0,0,0,0,0,0,0,0,0,0,0,0,0,0,0,80,0.00,0.00,0.00,0.00,0.00,0.00,1.00,0,80,0.00,0.00,1.00,1.00,0.00,0.00,0.00,0.00
0,tcp,other,REJ,0,0,0,0,0,0,0,0,0,0,0,0,0,0,0,0,0,0,0,81,0.00,0.00,0.00,0.00,0.00,0.00,1.00,0,81,0.00,0.00,1.00,1.00,0.00,0.00,0.00,0.00
0,tcp,other,REJ,0,0,0,0,0,0,0,0,0,0,0,0,0,0,0,0,0,0,0,82,0.00,0.00,0.00,0.00,0.00,0.00,1.00,0,82,0.00,0.00,1.00,1.00,0.00,0.00,0.00,0.00
0,tcp,other,REJ,0,0,0,0,0,0,0,0,0,0,0,0,0,0,0,0,0,0,0,83,0.00,0.00,0.00,0.00,0.00,0.00,1.00,0,83,0.00,0.00,1.00,1.00,0.00,0.00,0.00,0.00
0,tcp,other,REJ,0,0,0,0,0,0,0,0,0,0,0,0,0,0,0,0,0,0,0,84,0.00,0.00,0.00,0.00,0.00,0.00,1.00,0,84,0.00,0.00,1.00,1.00,0.00,0.00,0.00,0.00
0,tcp,other,REJ,0,0,0,0,0,0,0,0,0,0,0,0,0,0,0,0,0,0,0,85,0.00,0.00,0.00,0.00,0.00,0.00,1.00,0,85,0.00,0.00,1.00,1.00,0.00,0.00,0.00,0.00
0,tcp,other,REJ,0,0,0,0,0,0,0,0,0,0,0,0,0,0,0,0,0,0,0,86,0.00,0.00,0.00,0.00,0.00,0.00,1.00,0,86,0.00,0.00,1.00,1.00,0.00,0.00,0.00,0.00
0,tcp,other,REJ,0,0,0,0,0,0,0,0,0,0,0,0,0,0,0,0,0,0,0,87,0.00,0.00,0.00,0.00,0.00,0.00,1.00,0,87,0.00,0.00,1.00,1.00,0.00,0.00,0.00,0.00
0,tcp,other,REJ,0,0,0,0,0,0,0,0,0,0,0,0,0,0,0,0,0,0,0,88,0.00,0.00,0.00,0.00,0.00,0.00,1.00,0,88,0.00,0.00,1.00,1.00,0.00,0.00,0.00,0.00
0,tcp,other,REJ,0,0,0,0,0,0,0,0,0,0,0,0,0,0,0,0,0,0,0,89,0.00,0.00,0.00,0.00,0.00,0.00,1.00,0,89,0.00,0.00,1.00,1.00,0.00,0.00,0.00,0.00
0,tcp,other,REJ,0,0,0,0,0,0,0,0,0,0,0,0,0,0,0,0,0,0,0,90,0.00,0.00,0.00,0.00,0.00,0.00,1.00,0,90,0.00,0.00,1.00,1.00,0.00,0.00,0.00,0.00
0,tcp,other,REJ,0,0,0,0,0,0,0,0,0,0,0,0,0,0,0,0,0,0,0,91,0.00,0.00,0.00,0.00,0.00,0.00,1.00,0,91,0.00,0.00,1.00,1.00,0.00,0.00,0.00,0.00
0,tcp,other,REJ,0,0,0,0,0,0,0,0,0,0,0,0,0,0,0,0,0,0,0,92,0.00,0.00,0.00,0.00,0.00,0.00,1.00,0,92,0.00,0.00,1.00,1.00,0.00,0.00,0.00,0.00
0,tcp,other,REJ,0,0,0,0,0,0,0,0,0,0,0,0,0,0,0,0,0,0,0,93,0.00,0.00,0.00,0.00,0.00,0.00,1.00,0,93,0.00,0.00,1.00,1.00,0.00,0.00,0.00,0.00
0,tcp,other,REJ,0,0,0,0,0,0,0,0,0,0,0,0,0,0,0,0,0,0,0,94,0.00,0.00,0.00,0.00,0.00,0.00,1.00,0,94,0.00,0.00,1.00,1.00,0.00,0.00,0.00,0.00
0,tcp,other,REJ,0,0,0,0,0,0,0,0,0,0,0,0,0,0,0,0,0,0,0,95,0.00,0.00,0.00,0.00,0.00,0.00,1.00,0,95,0.00,0.00,1.00,1.00,0.00,0.00,0.00,0.00
0,tcp,other,REJ,0,0,0,0,0,0,0,0,0,0,0,0,0,0,0,0,0,0,0,96,0.00,0.00,0.00,0.00,0.00,0.00,1.00,0,96,0.00,0.00,1.00,1.00,0.00,0.00,0.00,0.00
0,tcp,other,REJ,0,0,0,0,0,0,0,0,0,0,0,0,0,0,0,0,0,0,0,97,0.00,0.00,0.00,0.00,0.00,0.00,1.00,0,97,0.00,0.00,1.00,1.00,0.00,0.00,0.00,0.00
0,tcp,other,REJ,0,0,0,0,0,0,0,0,0,0,0,0,0,0,0,0,0,0,0,98,0.00,0.00,0.00,0.00,0.00,0.00,1.00,0,98,0.00,0.00,1.00,1.00,0.00,0.00,0.00,0.00
0,tcp,private,REJ,0,0,0,0,0,0,0,0,0,0,0,0,0,0,0,0,0,0,0,99,0.00,0.00,0.00,0.00,0.00,0.00,1.00,0,99,0.00,0.00,1.00,1.00,0.00,0.00,0.00,0.00
0,tcp,private,REJ,0,0,0,0,0,0,0,0,0,0,0,0,0,0,0,0,0,0,0,100,0.00,0.00,0.00,0.00,0.00,0.00,1.00,0,100,0.00,0.00,1.00,1.00,0.00,0.00,0.00,0.00
0,tcp,private,REJ,0,0,0,0,0,0,0,0,0,0,0,0,0,0,0,0,0,0,0,101,0.00,0.00,0.00,0.00,0.00,0.00,1.00,0,100,0.00,0.00,1.00,1.00,0.00,0.00,0.00,0.00
0,tcp,private,REJ,0,0,0,0,0,0,0,0,0,0,0,0,0,0,0,0,0,0,0,102,0.00,0.00,0.00,0.00,0.00,0.00,1.00,0,100,0.00,0.00,1.00,1.00,0.00,0.00,0.00,0.00
0,tcp,private,REJ,0,0,0,0,0,0,0,0,0,0,0,0,0,0,0,0,0,0,0,103,0.00,0.00,0.00,0.00,0.00,0.00,1.00,0,100,0.00,0.00,1.00,1.00,0.00,0.00,0.00,0.00
0,tcp,private,REJ,0,0,0,0,0,0,0,0,0,0,0,0,0,0,0,0,0,0,0,104,0.00,0.00,0.00,0.00,0.00,0.00,1.00,0,100,0.00,0.00,1.00,1.00,0.00,0.00,0.00,0.00
0,tcp,shell,REJ,0,0,0,0,0,0,0,0,0,0,0,0,0,0,0,0,0,0,0,105,0.00,0.00,0.00,0.00,0.00,0.00,1.00,0,100,0.00,0.00,1.00,1.00,0.00,0.00,0.00,0.00
0,tcp,smtp,REJ,0,0,0,0,0,0,0,0,0,0,0,0,0,0,0,0,0,0,0,106,0.00,0.00,0.00,0.00,0.00,0.00,1.00,0,100,0.00,0.00,1.00,1.00,0.00,0.00,0.00,0.00
0,tcp,ssh,RSTOS0,0,0,0,1,0,0,0,0,0,0,0,0,0,0,0,0,0,0,0,107,0.00,0.00,0.00,0.00,0.00,0.00,1.00,0,100,0.00,0.00,1.00,1.00,0.00,0.00,0.00,0.00
0,tcp,ssh,RSTOS0,0,0,0,1,0,0,0,0,0,0,0,0,0,0,0,0,0,0,0,108,0.00,0.00,0.00,0.00,0.00,0.00,1.00,0,100,0.00,0.00,1.00,1.00,0.00,0.00,0.00,0.00
0,tcp,ssh,RSTOS0,0,0,0,1,0,0,0,0,0,0,0,0,0,0,0,0,0,0,0,109,0.00,0.00,0.00,0.00,0.00,0.00,1.00,0,100,0.00,0.00,1.00,1.00,0.00,0.00,0.00,0.00
0,tcp,ssh,RSTOS0,0,0,0,1,0,0,0,0,0,0,0,0,0,0,0,0,0,0,0,110,0.00,0.00,0.00,0.00,0.00,0.00,1.00,0,100,0.00,0.00,1.00,1.00,0.00,0.00,0.00,0.00
0,tcp,ssh,RSTOS0,0,0,0,1,0,0,0,0,0,0,0,0,0,0,0,0,0,0,0,111,0.00,0.00,0.00,0.00,0.00,0.00,1.00,0,100,0.00,0.00,1.00,1.00,0.00,0.00,0.00,0.00
0,tcp,ssh,RSTOS0,0,0,0,1,0,0,0,0,0,0,0,0,0,0,0,0,0,0,0,112,0.00,0.00,0.00,0.00,0.00,0.00,1.00,0,100,0.00,0.00,1.00,1.00,0.00,0.00,0.00,0.00
0,tcp,ssh,RSTOS0,0,0,0,1,0,0,0,0,0,0,0,0,0,0,0,0,0,0,0,113,0.00,0.00,0.00,0.00,0.00,0.00,1.00,0,100,0.00,0.00,1.00,1.00,0.00,0.00,0.00,0.00
0,tcp,ssh,RSTOS0,0,0,0,1,0,0,0,0,0,0,0,0,0,0,0,0,0,0,0,114,0.00,0.00,0.00,0.00,0.00,0.00,1.00,0,100,0.00,0.00,1.00,1.00,0.00,0.00,0.00,0.00
0,tcp,ssh,RSTOS0,0,0,0,1,0,0,0,0,0,0,0,0,0,0,0,0,0,0,0,115,0.00,0.00,0.00,0.00,0.00,0.00,1.00,0,100,0.00,0.00,1.00,1.00,0.00,0.00,0.00,0.00
0,tcp,ssh,RSTOS0,0,0,0,1,0,0,0,0,0,0,0,0,0,0,0,0,0,0,0,116,0.00,0.00,0.00,0.00,0.00,0.00,1.00,0,100,0.00,0.00,1.00,1.00,0.00,0.00,0.00,0.00
0,tcp,ssh,RSTOS0,0,0,0,1,0,0,0,0,0,0,0,0,0,0,0,0,0,0,0,117,0.00,0.00,0.00,0.00,0.00,0.00,1.00,0,100,0.00,0.00,1.00,1.00,0.00,0.00,0.00,0.00
0,tcp,ssh,RSTOS0,0,0,0,1,0,0,0,0,0,0,0,0,0,0,0,0,0,0,0,118,0.00,0.00,0.00,0.00,0.00,0.00,1.00,0,100,0.00,0.00,1.00,1.00,0.00,0.00,0.00,0.00
0,tcp,ssh,RSTOS0,0,0,0,1,0,0,0,0,0,0,0,0,0,0,0,0,0,0,0,119,0.00,0.00,0.00,0.00,0.00,0.00,1.00,0,100,0.00,0.00,1.00,1.00,0.00,0.00,0.00,0.00
0,tcp,ssh,RSTOS0,0,0,0,1,0,0,0,0,0,0,0,0,0,0,0,0,0,0,0,120,0.00,0.00,0.00,0.00,0.00,0.00,1.00,0,100,0.00,0.00,1.00,1.00,0.00,0.00,0.00,0.00
0,tcp,ssh,RSTOS0,0,0,0,1,0,0,0,0,0,0,0,0,0,0,0,0,0,0,0,121,0.00,0.00,0.00,0.00,0.00,0.00,1.00,0,100,0.00,0.00,1.00,1.00,0.00,0.00,0.00,0.00
0,tcp,ssh,RSTOS0,0,0,0,1,0,0,0,0,0,0,0,0,0,0,0,0,0,0,0,122,0.00,0.00,0.00,0.00,0.00,0.00,1.00,0,100,0.00,0.00,1.00,1.00,0.00,0.00,0.00,0.00
0,tcp,ssh,RSTOS0,0,0,0,1,0,0,0,0,0,0,0,0,0,0,0,0,0,0,0,123,0.00,0.00,0.00,0.00,0.00,0.00,1.00,0,100,0.00,0.00,1.00,1.00,0.00,0.00,0.00,0.00
0,tcp,ssh,RSTOS0,0,0,0,1,0,0,0,0,0,0,0,0,0,0,0,0,0,0,0,124,0.00,0.00,0.00,0.00,0.00,0.00,1.00,0,100,0.00,0.00,1.00,1.00,0.00,0.00,0.00,0.00
0,tcp,ssh,RSTOS0,0,0,0,1,0,0,0,0,0,0,0,0,0,0,0,0,0,0,0,125,0.00,0.00,0.00,0.00,0.00,0.00,1.00,0,100,0.00,0.00,1.00,1.00,0.00,0.00,0.00,0.00
0,tcp,ssh,RSTOS0,0,0,0,1,0,0,0,0,0,0,0,0,0,0,0,0,0,0,0,126,0.00,0.00,0.00,0.00,0.00,0.00,1.00,0,100,0.00,0.00,1.00,1.00,0.00,0.00,0.00,0.00
0,tcp,ssh,RSTOS0,0,0,0,1,0,0,0,0,0,0,0,0,0,0,0,0,0,0,0,127,0.00,0.00,0.00,0.00,0.00,0.00,1.00,0,100,0.00,0.00,1.00,1.00,0.00,0.00,0.00,0.00
0,tcp,ssh,RSTOS0,0,0,0,1,0,0,0,0,0,0,0,0,0,0,0,0,0,0,0,128,0.00,0.00,0.00,0.00,0.00,0.00,1.00,0,100,0.00,0.00,1.00,1.00,0.00,0.00,0.00,0.00
0,tcp,ssh,RSTOS0,0,0,0,1,0,0,0,0,0,0,0,0,0,0,0,0,0,0,0,129,0.00,0.00,0.00,0.00,0.00,0.00,1.00,0,100,0.00,0.00,1.00,1.00,0.00,0.00,0.00,0.00
0,tcp,ssh,RSTOS0,0,0,0,1,0,0,0,0,0,0,0,0,0,0,0,0,0,0,0,130,0.00,0.00,0.00,0.00,0.00,0.00,1.00,0,100,0.00,0.00,1.00,1.00,0.00,0.00,0.00,0.00
0,tcp,ssh,RSTOS0,0,0,0,1,0,0,0,0,0,0,0,0,0,0,0,0,0,0,0,131,0.00,0.00,0.00,0.00,0.00,0.00,1.00,0,100,0.00,0.00,1.00,1.00,0.00,0.00,0.00,0.00
0,tcp,ssh,RSTOS0,0,0,0,1,0,0,0,0,0,0,0,0,0,0,0,0,0,0,0,132,0.00,0.00,0.00,0.00,0.00,0.00,1.00,0,100,0.00,0.00,1.00,1.00,0.00,0.00,0.00,0.00
0,tcp,ssh,RSTOS0,0,0,0,1,0,0,0,0,0,0,0,0,0,0,0,0,0,0,0,133,0.00,0.00,0.00,0.00,0.00,0.00,1.00,0,100,0.00,0.00,1.00,1.00,0.00,0.00,0.00,0.00
0,tcp,ssh,RSTOS0,0,0,0,1,2,0,0,0,0,0,0,0,0,0,0,0,0,0,0,134,0.00,0.00,0.00,0.00,0.00,0.00,1.00,0,100,0.00,0.00,1.00,1.00,0.00,0.00,0.00,0.00
0,tcp,ssh,RSTOS0,0,0,0,1,2,0,0,0,0,0,0,0,0,0,0,0,0,0,0,135,0.00,0.00,0.00,0.00,0.00,0.00,1.00,0,100,0.00,0.00,1.00,1.00,0.00,0.00,0.00,0.00
0,tcp,ssh,RSTOS0,0,0,0,1,2,0,0,0,0,0,0,0,0,0,0,0,0,0,0,136,0.00,0.00,0.00,0.00,0.00,0.00,1.00,0,100,0.00,0.00,1.00,1.00,0.00,0.00,0.00,0.00
0,tcp,ssh,RSTOS0,0,0,0,1,2,0,0,0,0,0,0,0,0,0,0,0,0,0,0,137,0.00,0.00,0.00,0.00,0.00,0.00,1.00,0,100,0.00,0.00,1.00,1.00,0.00,0.00,0.00,0.00
0,tcp,ssh,SH,0,0,0,0,1,0,0,0,0,0,0,0,0,0,0,0,0,0,0,138,0.00,0.00,0.00,0.00,0.00,0.00,1.00,0,100,0.00,0.00,1.00,1.00,0.00,0.00,0.00,0.00
0,tcp,ssh,SH,0,0,0,0,1,0,0,0,0,0,0,0,0,0,0,0,0,0,0,139,0.00,0.00,0.00,0.00,0.00,0.00,1.00,0,100,0.00,0.00,1.00,1.00,0.00,0.00,0.00,0.00
0,tcp,ssh,SH,0,0,0,0,1,0,0,0,0,0,0,0,0,0,0,0,0,0,0,140,0.00,0.00,0.00,0.00,0.00,0.00,1.00,0,100,0.00,0.00,1.00,1.00,0.00,0.00,0.00,0.00
0,tcp,ssh,SH,0,0,0,0,1,0,0,0,0,0,0,0,0,0,0,0,0,0,0,141,0.00,0.00,0.00,0.00,0.00,0.00,1.00,0,100,0.00,0.00,1.00,1.00,0.00,0.00,0.00,0.00
0,tcp,telnet,REJ,0,0,0,0,0,0,0,0,0,0,0,0,0,0,0,0,0,0,0,142,0.00,0.00,0.00,0.00,0.00,0.00,1.00,0,100,0.00,0.00,1.00,1.00,0.00,0.00,0.00,0.00
0,tcp,time,REJ,0,0,0,0,0,0,0,0,0,0,0,0,0,0,0,0,0,0,0,143,0.00,0.00,0.00,0.00,0.00,0.00,1.00,0,100,0.00,0.00,1.00,1.00,0.00,0.00,0.00,0.00
0,udp,other,OTH,0,0,0,0,0,0,0,0,0,0,0,0,0,0,0,0,0,0,0,144,0.00,0.00,0.00,0.00,0.00,0.00,1.00,0,100,0.00,0.00,1.00,1.00,0.00,0.00,0.00,0.00
0,udp,other,OTH,0,0,0,0,0,0,0,0,0,0,0,0,0,0,0,0,0,0,0,145,0.00,0.00,0.00,0.00,0.00,0.00,1.00,0,100,0.00,0.00,1.00,1.00,0.00,0.00,0.00,0.00
0,udp,private,OTH,0,0,0,0,0,0,0,0,0,0,0,0,0,0,0,0,0,0,0,146,0.00,0.00,0.00,0.00,0.00,0.00,1.00,0,100,0.00,0.00,1.00,1.00,0.00,0.00,0.00,0.00
1,icmp,other,SF,0,65000,0,0,0,0,0,0,0,0,0,0,0,0,0,0,0,0,0,147,0.00,0.00,0.00,0.00,0.00,0.00,1.00,0,100,0.00,0.00,1.00,1.00,0.00,0.00,0.00,0.00
1,tcp,echo,RSTRH,0,0,0,0,0,0,0,0,0,0,0,0,0,0,0,0,0,0,0,148,0.00,0.00,0.00,0.00,0.00,0.00,1.00,0,100,0.00,0.00,1.00,1.00,0.00,0.00,0.00,0.00
1,tcp,ssh,OTH,0,0,0,0,0,0,0,0,0,0,0,0,0,0,0,0,0,0,0,149,0.00,0.00,0.00,0.00,0.00,0.00,1.00,0,100,0.00,0.00,1.00,1.00,0.00,0.00,0.00,0.00
1,tcp,ssh,RSTRH,0,0,0,0,0,0,0,0,0,0,0,0,0,0,0,0,0,0,0,150,0.00,0.00,0.00,0.00,0.00,0.00,1.00,0,100,0.00,0.00,1.00,1.00,0.00,0.00,0.00,0.00
1,tcp,ssh,SH,0,0,0,3,0,0,0,0,0,0,0,0,0,0,0,0,0,0,0,151,0.00,0.00,0.00,0.00,0.00,0.00,1.00,0,100,0.00,0.00,1.00,1.00,0.00,0.00,0.00,0.00
1,udp,other,S0,0,0,0,0,0,0,0,0,0,0,0,0,0,0,0,0,0,0,0,152,0.00,0.00,0.00,0.00,0.00,0.00,1.00,0,100,0.00,0.00,1.00,1.00,0.00,0.00,0.00,0.00
2,icmp,other,SF,0,65000,0,0,0,0,0,0,0,0,0,0,0,0,0,0,0,0,0,153,0.00,0.00,0.00,0.00,0.00,0.00,1.00,0,100,0.00,0.00,1.00,1.00,0.00,0.00,0.00,0.00
2,udp,other,S0,0,0,0,0,0,0,0,0,0,0,0,0,0,0,0,0,0,0,0,154,0.00,0.00,0.00,0.00,0.00,0.00,1.00,0,100,0.00,0.00,1.00,1.00,0.00,0.00,0.00,0.00
3,icmp,other,SF,0,65000,0,0,0,0,0,0,0,0,0,0,0,0,0,0,0,0,0,155,0.00,0.00,0.00,0.00,0.00,0.00,1.00,0,100,0.00,0.00,1.00,1.00,0.00,0.00,0.00,0.00
3,udp,other,S0,0,0,0,0,0,0,0,0,0,0,0,0,0,0,0,0,0,0,0,156,0.00,0.00,0.00,0.00,0.00,0.00,1.00,0,100,0.00,0.00,1.00,1.00,0.00,0.00,0.00,0.00
4,icmp,other,SF,0,65000,0,0,0,0,0,0,0,0,0,0,0,0,0,0,0,0,0,157,0.00,0.00,0.00,0.00,0.00,0.00,1.00,0,100,0.00,0.00,1.00,1.00,0.00,0.00,0.00,0.00
5,icmp,other,SF,0,65000,0,0,0,0,0,0,0,0,0,0,0,0,0,0,0,0,0,158,0.00,0.00,0.00,0.00,0.00,0.00,1.00,0,100,0.00,0.00,1.00,1.00,0.00,0.00,0.00,0.00
6,icmp,other,SF,0,65000,0,0,0,0,0,0,0,0,0,0,0,0,0,0,0,0,0,159,0.00,0.00,0.00,0.00,0.00,0.00,1.00,0,100,0.00,0.00,1.00,1.00,0.00,0.00,0.00,0.00
7,icmp,other,SF,0,65000,0,0,0,0,0,0,0,0,0,0,0,0,0,0,0,0,0,160,0.00,0.00,0.00,0.00,0.00,0.00,1.00,0,100,0.00,0.00,1.00,1.00,0.00,0.00,0.00,0.00
8,icmp,other,SF,0,65000,0,0,0,0,0,0,0,0,0,0,0,0,0,0,0,0,0,161,0.00,0.00,0.00,0.00,0.00,0.00,1.00,0,100,0.00,0.00,1.00,1.00,0.00,0.00,0.00,0.00
9,icmp,other,SF,0,65000,0,0,0,0,0,0,0,0,0,0,0,0,0,0,0,0,0,162,0.00,0.00,0.00,0.00,0.00,0.00,1.00,0,100,0.00,0.00,1.00,1.00,0.00,0.00,0.00,0.00
10,icmp,other,SF,0,65000,0,0,0,0,0,0,0,0,0,0,0,0,0,0,0,0,0,163,0.00,0.00,0.00,0.00,0.00,0.00,1.00,0,100,0.00,0.00,1.00,1.00,0.00,0.00,0.00,0.00
11,icmp,other,SF,0,65000,0,0,0,0,0,0,0,0,0,0,0,0,0,0,0,0,0,164,0.00,0.00,0.00,0.00,0.00,0.00,1.00,0,100,0.00,0.00,1.00,1.00,0.00,0.00,0.00,0.00
12,icmp,other,SF,0,65000,0,0,0,0,0,0,0,0,0,0,0,0,0,0,0,0,0,165,0.00,0.00,0.00,0.00,0.00,0.00,1.00,0,100,0.00,0.00,1.00,1.00,0.00,0.00,0.00,0.00
13,icmp,other,SF,0,65000,0,0,0,0,0,0,0,0,0,0,0,0,0,0,0,0,0,166,0.00,0.00,0.00,0.00,0.00,0.00,1.00,0,100,0.00,0.00,1.00,1.00,0.00,0.00,0.00,0.00
14,icmp,other,SF,65000,0,0,0,0,0,0,0,0,0,0,0,0,0,0,0,0,0,0,167,0.00,0.00,0.00,0.00,0.00,0.00,1.00,0,100,0.00,0.00,1.00,1.00,0.00,0.00,0.00,0.00
15,icmp,other,SF,0,65000,0,0,0,0,0,0,0,0,0,0,0,0,0,0,0,0,0,168,0.00,0.00,0.00,0.00,0.00,0.00,1.00,0,100,0.00,0.00,1.00,1.00,0.00,0.00,0.00,0.00
16,icmp,other,SF,0,65000,0,0,0,0,0,0,0,0,0,0,0,0,0,0,0,0,0,169,0.00,0.00,0.00,0.00,0.00,0.00,1.00,0,100,0.00,0.00,1.00,1.00,0.00,0.00,0.00,0.00
17,icmp,other,SF,0,65000,0,0,0,0,0,0,0,0,0,0,0,0,0,0,0,0,0,170,0.00,0.00,0.00,0.00,0.00,0.00,1.00,0,100,0.00,0.00,1.00,1.00,0.00,0.00,0.00,0.00
18,icmp,other,SF,0,65000,0,0,0,0,0,0,0,0,0,0,0,0,0,0,0,0,0,171,0.00,0.00,0.00,0.00,0.00,0.00,1.00,0,100,0.00,0.00,1.00,1.00,0.00,0.00,0.00,0.00
19,icmp,other,SF,0,65000,0,0,0,0,0,0,0,0,0,0,0,0,0,0,0,0,0,172,0.00,0.00,0.00,0.00,0.00,0.00,1.00,0,100,0.00,0.00,1.00,1.00,0.00,0.00,0.00,0.00
20,icmp,other,SF,0,65000,0,0,0,0,0,0,0,0,0,0,0,0,0,0,0,0,0,173,0.00,0.00,0.00,0.00,0.00,0.00,1.00,0,100,0.00,0.00,1.00,1.00,0.00,0.00,0.00,0.00
21,icmp,other,SF,0,65000,0,0,0,0,0,0,0,0,0,0,0,0,0,0,0,0,0,174,0.00,0.00,0.00,0.00,0.00,0.00,1.00,0,100,0.00,0.00,1.00,1.00,0.00,0.00,0.00,0.00
22,icmp,other,SF,0,65000,0,0,0,0,0,0,0,0,0,0,0,0,0,0,0,0,0,175,0.00,0.00,0.00,0.00,0.00,0.00,1.00,0,100,0.00,0.00,1.00,1.00,0.00,0.00,0.00,0.00
23,icmp,other,SF,0,65000,0,0,0,0,0,0,0,0,0,0,0,0,0,0,0,0,0,176,0.00,0.00,0.00,0.00,0.00,0.00,1.00,0,100,0.00,0.00,1.00,1.00,0.00,0.00,0.00,0.00
24,icmp,other,SF,0,65000,0,0,0,0,0,0,0,0,0,0,0,0,0,0,0,0,0,177,0.00,0.00,0.00,0.00,0.00,0.00,1.00,0,100,0.00,0.00,1.00,1.00,0.00,0.00,0.00,0.00
25,icmp,other,SF,0,65000,0,0,0,0,0,0,0,0,0,0,0,0,0,0,0,0,0,178,0.00,0.00,0.00,0.00,0.00,0.00,1.00,0,100,0.00,0.00,1.00,1.00,0.00,0.00,0.00,0.00
26,icmp,other,SF,0,65000,0,0,0,0,0,0,0,0,0,0,0,0,0,0,0,0,0,179,0.00,0.00,0.00,0.00,0.00,0.00,1.00,0,100,0.00,0.00,1.00,1.00,0.00,0.00,0.00,0.00
27,icmp,other,SF,0,65000,0,0,0,0,0,0,0,0,0,0,0,0,0,0,0,0,0,180,0.00,0.00,0.00,0.00,0.00,0.00,1.00,0,100,0.00,0.00,1.00,1.00,0.00,0.00,0.00,0.00
28,icmp,other,SF,0,65000,0,0,0,0,0,0,0,0,0,0,0,0,0,0,0,0,0,181,0.00,0.00,0.00,0.00,0.00,0.00,1.00,0,100,0.00,0.00,1.00,1.00,0.00,0.00,0.00,0.00
29,icmp,other,SF,0,65000,0,0,0,0,0,0,0,0,0,0,0,0,0,0,0,0,0,182,0.00,0.00,0.00,0.00,0.00,0.00,1.00,0,100,0.00,0.00,1.00,1.00,0.00,0.00,0.00,0.00
30,icmp,other,SF,0,65000,0,0,0,0,0,0,0,0,0,0,0,0,0,0,0,0,0,183,0.00,0.00,0.00,0.00,0.00,0.00,1.00,0,100,0.00,0.00,1.00,1.00,0.00,0.00,0.00,0.00
30,udp,private,S0,0,0,0,0,0,0,0,0,0,0,0,0,0,0,0,0,0,0,0,184,0.00,0.00,0.00,0.00,0.00,0.00,1.00,0,100,0.00,0.00,1.00,1.00,0.00,0.00,0.00,0.00
31,icmp,other,SF,0,65000,0,0,0,0,0,0,0,0,0,0,0,0,0,0,0,0,0,185,0.00,0.00,0.00,0.00,0.00,0.00,1.00,0,100,0.00,0.00,1.00,1.00,0.00,0.00,0.00,0.00
32,icmp,other,SF,0,65000,0,0,0,0,0,0,0,0,0,0,0,0,0,0,0,0,0,186,0.00,0.00,0.00,0.00,0.00,0.00,1.00,0,100,0.00,0.00,1.00,1.00,0.00,0.00,0.00,0.00
